CREATE TABLE IF NOT EXISTS `validate` (
  `email` varchar(255) NOT NULL default '',
  `md5` varchar(255) NOT NULL default '',
  `account_id` int(11) unsigned NOT NULL default '0',
  `status` tinyint(1) NOT NULL default '0',
  PRIMARY KEY  (`account_id`)
) ENGINE=MyISAM;

prontera,150,180,4	script	Validate System	990,{
	set @status,0;
	query_sql "SELECT `status` FROM `validate` WHERE `account_id` = "+getcharid(3)+"", @status;
	switch(prompt("Validate my account","Retrieve password"))
	{
		case 1:
			if( @status == 0 )
			{
				mes "Please type your E-mail which will set to be your identity E-Mail and it will be used for delete char and retrieve password.";
				select("Okay, I know now");
				set @mail$,"";
				input @mail$;
				next;
				mes "Are you sure is";
				mes "[ "+@mail$+" ]";
				select("Yes");
				next;
				set .@md5$,md5(@mail$+""+getcharid(3)+""+gettimetick(2));
				email @mail$,"[ Goddameit's Ro Server : Account Validate System ]"," Validate Code : "+.@md5$+" ","";
				query_sql "INSERT `validate` VALUES('"+@mail$+"','"+.@md5$+"',"+getcharid(3)+",1)";
				mes "Please go to your mail box and get your code to complete this system.";
				break;
			}else if( @status == 1 )
			{
				mes "Please type your code";
				set @md5$,"";
				input @md5$;
				set .@oaid,getcharid(3);
				query_sql "SELECT `account_id` FROM `validate` WHERE `email` != '' AND `status` = 1 AND `md5` = '"+escape_sql(@md5$)+"' AND `account_id` = "+.@oaid+"",.@aid;
				if( .@aid == 0 )
				{
					mes "Sorry, wrong code.";
					close;
				}
				query_sql "SELECT `email` FROM `validate` WHERE `account_id` = "+.@oaid,.@mail$;
				query_sql "UPDATE `validate` SET `status` = 2 WHERE `account_id` = "+.@oaid;
				query_sql "UPDATE `validate` SET `email` = '"+.@mail$+"' WHERE `account_id` = "+.@oaid;
				query_sql "UPDATE `validate` SET `md5` = '"+gettimestr("%Y-%m/%d %H:%M:%S",21)+"' WHERE `account_id` = "+.@oaid;
				next;
				mes "Complete.";
				break;
			}else
				break;
		case 2:
			mes "Please type your E-mail";
			input .@omail$;
			query_sql "SELECT `email`,`account_id` FROM `validate` WHERE `status` = 2 AND `email` = '"+.@omail$+"'",.@mail$,.@oaid;
			if( .@oaid == 0 || .@mail$ == "" )
			{
				mes "Wrong Email or Unprotect account.";
				close;
			}
			query_sql "SELECT `user_pass` FROM `login` WHERE `account_id` = "+.@oaid+"",.@user_pass$;
			email .@mail$,"[ Goddameit's Ro Server : Account Validate System ]"," Your account password : ''"+.@user_pass$+"'' ","";
			set .@user_pass$,"";
			set .@mail$,"";
			mes "Please go to your mail box and get your password.";
			break;
		default:
			break;
	}
	set @status,0;
	set @md5$,"";
	set @mail$,"";
	close;
}